{
	"hooks": [
		{
			"name": "dw.ocapi.shop.basket.calculate",
			"script": "./cart/calculate.js"
		},
		{
			"name": "dw.ocapi.shop.basket.beforeAdd",
			"script": "./basket_hook_scripts.js"
		},
		{
			"name": "dw.ocapi.shop.basket.afterSetShippingAddress",
			"script": "./basket_hook_scripts.js"
		},
		{
			"name": "dw.ocapi.shop.order.beforePaymentAuthorize",
			"script": "./order_hook_scripts.js"
		},
		{
			"name": "dw.ocapi.shop.order.afterPaymentAuthorize",
			"script": "./order_hook_scripts.js"
		},
        {
            "name": "dw.ocapi.shop.basket.afterSetShippingMethod",
            "script": "./cart/getproratedprices.js" 
        }		
	]
}